digraph "baseshare.h"
{
 // LATEX_PDF_SIZE
  edge [fontname="Helvetica",fontsize="10",labelfontname="Helvetica",labelfontsize="10"];
  node [fontname="Helvetica",fontsize="10",shape=record];
  Node1 [label="baseshare.h",height=0.2,width=0.4,color="black", fillcolor="grey75", style="filled", fontcolor="black",tooltip="Headers for a base class for type-safe, thread-safe task data exchange classes."];
  Node1 -> Node2 [dir="back",color="midnightblue",fontsize="10",style="solid",fontname="Helvetica"];
  Node2 [label="baseshare.cpp",height=0.2,width=0.4,color="black", fillcolor="white", style="filled",URL="$baseshare_8cpp.html",tooltip="Source code of a base class for type-safe, thread-safe task data exchange classes."];
  Node1 -> Node3 [dir="back",color="midnightblue",fontsize="10",style="solid",fontname="Helvetica"];
  Node3 [label="taskqueue.h",height=0.2,width=0.4,color="black", fillcolor="white", style="filled",URL="$taskqueue_8h.html",tooltip=" "];
  Node3 -> Node4 [dir="back",color="midnightblue",fontsize="10",style="solid",fontname="Helvetica"];
  Node4 [label="Heater.h",height=0.2,width=0.4,color="black", fillcolor="white", style="filled",URL="$Heater_8h.html",tooltip="Header file for source code to control a simple heating pad."];
  Node4 -> Node5 [dir="back",color="midnightblue",fontsize="10",style="solid",fontname="Helvetica"];
  Node5 [label="Heater.cpp",height=0.2,width=0.4,color="black", fillcolor="white", style="filled",URL="$Heater_8cpp.html",tooltip=" "];
  Node3 -> Node6 [dir="back",color="midnightblue",fontsize="10",style="solid",fontname="Helvetica"];
  Node6 [label="HumidTempSense.h",height=0.2,width=0.4,color="black", fillcolor="white", style="filled",URL="$HumidTempSense_8h.html",tooltip=" "];
  Node6 -> Node7 [dir="back",color="midnightblue",fontsize="10",style="solid",fontname="Helvetica"];
  Node7 [label="HumidTempSense.cpp",height=0.2,width=0.4,color="black", fillcolor="white", style="filled",URL="$HumidTempSense_8cpp.html",tooltip=" "];
  Node3 -> Node8 [dir="back",color="midnightblue",fontsize="10",style="solid",fontname="Helvetica"];
  Node8 [label="Mister.h",height=0.2,width=0.4,color="black", fillcolor="white", style="filled",URL="$Mister_8h.html",tooltip=" "];
  Node8 -> Node9 [dir="back",color="midnightblue",fontsize="10",style="solid",fontname="Helvetica"];
  Node9 [label="Mister.cpp",height=0.2,width=0.4,color="black", fillcolor="white", style="filled",URL="$Mister_8cpp.html",tooltip=" "];
  Node3 -> Node10 [dir="back",color="midnightblue",fontsize="10",style="solid",fontname="Helvetica"];
  Node10 [label="MoistureSense.h",height=0.2,width=0.4,color="black", fillcolor="white", style="filled",URL="$MoistureSense_8h.html",tooltip=" "];
  Node10 -> Node11 [dir="back",color="midnightblue",fontsize="10",style="solid",fontname="Helvetica"];
  Node11 [label="MoistureSense.cpp",height=0.2,width=0.4,color="black", fillcolor="white", style="filled",URL="$MoistureSense_8cpp.html",tooltip=" "];
  Node3 -> Node12 [dir="back",color="midnightblue",fontsize="10",style="solid",fontname="Helvetica"];
  Node12 [label="MotorRun.h",height=0.2,width=0.4,color="black", fillcolor="white", style="filled",URL="$MotorRun_8h_source.html",tooltip=" "];
  Node3 -> Node13 [dir="back",color="midnightblue",fontsize="10",style="solid",fontname="Helvetica"];
  Node13 [label="SafetyCheck.h",height=0.2,width=0.4,color="black", fillcolor="white", style="filled",URL="$SafetyCheck_8h_source.html",tooltip=" "];
  Node3 -> Node14 [dir="back",color="midnightblue",fontsize="10",style="solid",fontname="Helvetica"];
  Node14 [label="SolenoidValve.h",height=0.2,width=0.4,color="black", fillcolor="white", style="filled",URL="$SolenoidValve_8h.html",tooltip=" "];
  Node14 -> Node15 [dir="back",color="midnightblue",fontsize="10",style="solid",fontname="Helvetica"];
  Node15 [label="SolenoidValve.cpp",height=0.2,width=0.4,color="black", fillcolor="white", style="filled",URL="$SolenoidValve_8cpp.html",tooltip=" "];
  Node3 -> Node16 [dir="back",color="midnightblue",fontsize="10",style="solid",fontname="Helvetica"];
  Node16 [label="useLightclass.h",height=0.2,width=0.4,color="black", fillcolor="white", style="filled",URL="$useLightclass_8h_source.html",tooltip=" "];
  Node3 -> Node17 [dir="back",color="midnightblue",fontsize="10",style="solid",fontname="Helvetica"];
  Node17 [label="UserInterface.h",height=0.2,width=0.4,color="black", fillcolor="white", style="filled",URL="$UserInterface_8h_source.html",tooltip=" "];
  Node17 -> Node18 [dir="back",color="midnightblue",fontsize="10",style="solid",fontname="Helvetica"];
  Node18 [label="UserInterface.cpp",height=0.2,width=0.4,color="black", fillcolor="white", style="filled",URL="$UserInterface_8cpp.html",tooltip=" "];
  Node1 -> Node19 [dir="back",color="midnightblue",fontsize="10",style="solid",fontname="Helvetica"];
  Node19 [label="taskshare.h",height=0.2,width=0.4,color="black", fillcolor="white", style="filled",URL="$taskshare_8h.html",tooltip="Data which can be shared between tasks in a thread-safe manner."];
  Node19 -> Node4 [dir="back",color="midnightblue",fontsize="10",style="solid",fontname="Helvetica"];
  Node19 -> Node6 [dir="back",color="midnightblue",fontsize="10",style="solid",fontname="Helvetica"];
  Node19 -> Node8 [dir="back",color="midnightblue",fontsize="10",style="solid",fontname="Helvetica"];
  Node19 -> Node10 [dir="back",color="midnightblue",fontsize="10",style="solid",fontname="Helvetica"];
  Node19 -> Node12 [dir="back",color="midnightblue",fontsize="10",style="solid",fontname="Helvetica"];
  Node19 -> Node13 [dir="back",color="midnightblue",fontsize="10",style="solid",fontname="Helvetica"];
  Node19 -> Node14 [dir="back",color="midnightblue",fontsize="10",style="solid",fontname="Helvetica"];
  Node19 -> Node16 [dir="back",color="midnightblue",fontsize="10",style="solid",fontname="Helvetica"];
  Node19 -> Node17 [dir="back",color="midnightblue",fontsize="10",style="solid",fontname="Helvetica"];
}
